# Name: Magellan eXplorist 210
# Chipset: unknown
# Submitter: "Paul B van den Berg" <paulberg@wanadoo.nl>
# Date: 2006-05-20
# Location: Groningen, NL, 53.2N6.6E
#
# Note: Odd time steps: 06:20.300, 06:21.297, 06:21.300, 06:21.305, 06:21.310
#
# This file is Copyright (c) 2010 by the GPSD project
# BSD terms apply: see the file COPYING in the distribution root for details.
#
# mode V2.1 GSA
# Lines up to but not including the first GPGLL are
# `cat /dev/ttyACM0` at startup 
# Following lines are
# `cat /dev/ttyACM0` stationary
$GPGSV,3,1,00,,,,,,,,,,,,,,,,*7B
$GPGSV,3,2,00,,,,,,,,,,,,,,,,*78
$GPGSV,3,3,00,,,,,,,,,,,,,,,,*79
$PMGNST,01.75,3,F,816,11.1,+00000,20*5E
$GPGSV,3,1,00,,,,,,,,,,,,,,,,*7B
$GPGSV,3,2,00,,,,,,,,,,,,,,,,*78
$GPGSV,3,3,00,,,,,,,,,,,,,,,,*79
$PMGNST,01.75,3,F,816,11.1,+00000,20*5E
$GPGSV,3,1,00,,,,,,,,,,,,,,,,*7B
$GPGSV,3,2,00,,,,,,,,,,,,,,,,*78
$GPGSV,3,3,00,,,,,,,,,,,,,,,,*79
$PMGNST,01.75,3,F,822,11.2,+00000,20*5A
$GPGSV,3,1,00,,,,,,,,,,,,,,,,*7B
$GPGSV,3,2,00,,,,,,,,,,,,,,,,*78
$GPGSV,3,3,00,,,,,,,,,,,,,,,,*79
$PMGNST,01.75,3,F,822,11.2,+00000,20*5A
$GPGSV,3,1,12,09,76,287,,17,38,073,36,26,34,163,,05,33,230,*72
$GPGSV,3,2,12,29,27,161,,18,24,256,,22,24,299,,28,11,055,*73
$GPGSV,3,3,12,14,08,319,,11,03,017,,30,02,232,,24,00,084,*71
$PMGNST,01.75,3,F,822,11.2,-00673,20*5E
# This device has some strange bug that causes it to emit three-digit
# fractional parts on GPGLL timestamps: you can see one in the next line.
# These produce spurious start-of-cycle events.
$GPGLL,5313.2228,N,00634.4228,E,200619.295,A*35
$GPGGA,200619.30,5313.2228,N,00634.4228,E,1,05,2.6,00000,M,,,,*2C
$GPRMC,200619.30,A,5313.2228,N,00634.4228,E,00.0,000.0,200506,00,W*59
$GPGSA,A,3,26,05,22,09,18,,,,,,,,05.1,02.6,04.4*03
$GPGSV,3,1,10,09,78,288,39,17,38,071,,05,34,230,45,26,33,163,39*77
$GPGSV,3,2,10,29,26,162,,18,24,255,42,22,24,298,44,28,10,056,*75
$GPGSV,3,3,10,14,09,319,,11,03,016,,136,27,157,,124,28,162,*71
$GPGLL,5313.2228,N,00634.4228,E,200620.303,A*31
$GPGGA,200620.30,5313.2228,N,00634.4228,E,1,05,2.5,00000,M,,,,*25
$GPRMC,200620.30,A,5313.2228,N,00634.4228,E,00.0,000.0,200506,00,W*53
$GPGSA,A,3,26,05,22,09,18,,,,,,,,05.0,02.5,04.3*06
$PMGNST,01.75,3,T,816,11.1,-00496,00*43
$GPGLL,5313.2227,N,00634.4228,E,200621.297,A*33
$GPGGA,200621.30,5313.2227,N,00634.4228,E,1,05,2.6,00000,M,,,,*28
$GPRMC,200621.30,A,5313.2227,N,00634.4228,E,00.0,000.0,200506,00,W*5D
$GPGSA,A,3,26,05,22,09,18,,,,,,,,05.2,02.6,04.5*01
$GPGSV,3,1,10,09,78,288,38,17,38,071,,05,34,230,45,26,33,163,39*76
$GPGSV,3,2,10,29,26,162,,18,24,255,42,22,24,298,44,28,10,056,*75
$GPGSV,3,3,10,14,09,319,,11,03,016,,136,27,157,,124,28,162,*71
$GPGLL,5313.2227,N,00634.4228,E,200622.305,A*3A
$GPGGA,200622.31,5313.2227,N,00634.4228,E,1,05,2.5,00000,M,,,,*29
$GPRMC,200622.31,A,5313.2227,N,00634.4228,E,00.0,000.0,200506,00,W*5F
$GPGSA,A,3,26,05,22,09,18,,,,,,,,05.0,02.5,04.3*06
$PMGNST,01.75,3,T,816,11.1,-00495,00*40
